D:\Dev\Notary\Notary\src\app\app.component.js
D:\Dev\Notary\Notary\src\app\app.component.js.map
D:\Dev\Notary\Notary\src\app\app.module.js
D:\Dev\Notary\Notary\src\app\app.module.js.map
D:\Dev\Notary\Notary\src\main.js
D:\Dev\Notary\Notary\src\main.js.map
D:\Dev\Notary\Notary\src\app\app.component.spec.js
D:\Dev\Notary\Notary\src\app\app.component.spec.js.map
